// Jest Snapshot v1, https://goo.gl/fbAQLP

exports[`createDependencyInjection Access should throw error on non injected property access 1`] = `"Dependency 'unknown-key' is not injected"`;

exports[`createDependencyInjection Mutation should throw error on property mutation 1`] = `"Mutation of dependency 'key' forbidden"`;

exports[`serve should exit on error 1`] = `
Array [
  [Error: listen-error],
]
`;

exports[`serve should serve fastify instance 1`] = `
Array [
  "Server listening at http://localhost:3010",
]
`;
